<svg width="19" height="20" viewBox="0 0 19 20" fill="none" xmlns="http://www.w3.org/2000/svg">
<path d="M16.0681 0.571289H2.75768C1.23722 0.571289 0 1.81057 0 3.33357V16.6662C0 18.1892 1.23722 19.4284 2.75768 19.4284H8.30981V12.7621H6.10367V9.44741H8.30981V7.20075C8.30981 5.3729 9.79422 3.88602 11.619 3.88602H14.965V7.20075H11.619V9.44741H14.965L14.4135 12.7621H11.619V19.4284H16.0681C17.5886 19.4284 18.8258 18.1892 18.8258 16.6662V3.33357C18.8258 1.81057 17.5886 0.571289 16.0681 0.571289Z" fill="white"/>
</svg>
